<?xml version="1.0" encoding="UTF-8" standalone="no"?>
<svg width="298px" height="99px" viewBox="0 0 298 99" version="1.1" xmlns="http://www.w3.org/2000/svg" xmlns:xlink="http://www.w3.org/1999/xlink">
    <!-- Generator: Sketch 43.2 (39069) - http://www.bohemiancoding.com/sketch -->
    <title>ボタン：とべ初心者</title>
    <desc>Created with Sketch.</desc>
    <defs>
        <rect id="path-1" x="0" y="0" width="292" height="92.1166322" rx="4"></rect>
        <filter x="-1.7%" y="-4.3%" width="103.4%" height="110.9%" filterUnits="objectBoundingBox" id="filter-2">
            <feOffset dx="0" dy="1" in="SourceAlpha" result="shadowOffsetOuter1"></feOffset>
            <feGaussianBlur stdDeviation="1.5" in="shadowOffsetOuter1" result="shadowBlurOuter1"></feGaussianBlur>
            <feComposite in="shadowBlurOuter1" in2="SourceAlpha" operator="out" result="shadowBlurOuter1"></feComposite>
            <feColorMatrix values="0 0 0 0 0   0 0 0 0 0   0 0 0 0 0  0 0 0 0.5 0" type="matrix" in="shadowBlurOuter1"></feColorMatrix>
        </filter>
    </defs>
    <g id="画面" stroke="none" stroke-width="1" fill="none" fill-rule="evenodd">
        <g id="難易度選択" transform="translate(-38.000000, -114.000000)">
            <g id="ボタン：とべ初心者" transform="translate(41.000000, 116.000000)">
                <g id="Rectangle-8">
                    <use fill="black" fill-opacity="1" filter="url(#filter-2)" xlink:href="#path-1"></use>
                    <use fill="#EFC69B" fill-rule="evenodd" xlink:href="#path-1"></use>
                    <rect stroke="#8B572A" stroke-width="8" x="4" y="4" width="284" height="84.1166322" rx="4"></rect>
                </g>
                <text id="とべ初心者-級" font-family="07NikumaruFont" font-size="32" font-weight="600" letter-spacing="1.56722224" fill="#6A3200">
                    <tspan x="41.0147222" y="58.7142184">とべ初心者</tspan>
                    <tspan x="208.850833" y="58.7142184" font-size="26"> 級</tspan>
                </text>
            </g>
        </g>
    </g>
</svg>