<?xml version="1.0" encoding="UTF-8" standalone="no"?>
<svg width="26px" height="26px" viewBox="0 0 26 26" version="1.1" xmlns="http://www.w3.org/2000/svg" xmlns:xlink="http://www.w3.org/1999/xlink">
    <!-- Generator: Sketch 43.2 (39069) - http://www.bohemiancoding.com/sketch -->
    <title>Oval</title>
    <desc>Created with Sketch.</desc>
    <defs>
        <circle id="path-1" cx="12" cy="12" r="12"></circle>
    </defs>
    <g id="画面" stroke="none" stroke-width="1" fill="none" fill-rule="evenodd">
        <g id="解説一覧" transform="translate(-284.000000, -147.000000)">
            <g id="ぽっぷ" transform="translate(24.000000, 114.000000)">
                <g id="1.同じ子？" transform="translate(15.000000, 19.000000)">
                    <g id="正解ボタン" transform="translate(244.000000, 15.000000)">
                        <g id="Oval" transform="translate(2.000000, 0.000000)">
                            <mask id="mask-2" fill="white">
                                <use xlink:href="#path-1"></use>
                            </mask>
                            <use id="Mask" stroke="#E95983" fill="#E95983" xlink:href="#path-1"></use>
                            <circle id="Oval-2" stroke="#E95983" fill="#D8D8D8" mask="url(#mask-2)" cx="12" cy="12" r="8"></circle>
                        </g>
                    </g>
                </g>
            </g>
        </g>
    </g>
</svg>